…
Note that for further analyses, you will need to make sure all dates are stored as `Date` objects. This can be done using `as.Date`:

``` r
linelist$onset <- as.Date(linelist$onset)
```

Once imported, the data should look like:

``` r
## linelist: one line per case
linelist
## # A tibble: 50 x 4
##    case_id onset      sex      age
##    <chr>   <date>     <chr>  <dbl>
##  1 39e9dc  2017-10-10 female    62
##  2 664549  2017-10-16 male      28
##  3 b4d8aa  2017-10-17 male      54
##  4 51883d  2017-10-18 male      57
##  5 947e40  2017-10-20 female    23
##  6 9aa197  2017-10-20 female    66
##  7 e4b0a2  2017-10-21 female    13
##  8 af0ac0  2017-10-21 male      10
##  9 185911  2017-10-21 female    34
## 10 601d2e  2017-10-22 male      11
## # ... with 40 more rows

## contacts: pairs of cases with reported contacts
contacts
## # A tibble: 36 x 2
##    from   to    
##    <chr>  <chr> 
##  1 9aa197 426b6d
##  2 39e9dc a8e9d8
##  3 c2a389 95fc1d
##  4 51883d 778316
##  5 51883d e37897
##  6 933811 99abbe
##  7 51883d 185911
##  8 b4d8aa e4b0a2
##  9 605322 1875e2
## 10 b4d8aa b5ad13
## # ... with 26 more rows
```
…
After the initial stage of the outbreak, contact tracing has been maintained but started being sparser, and exposures haven't been reported for all cases. Despite these limitations, contacts are still a valuable source of information. Using the function `make_epicontacts` in the `epicontacts` package, create a new `epicontacts` object called `x`, specifying that contacts are directed. When plotting the data, use the arguments `node_shape` and `shapes` (see `?vis_epicontacts`) to distinguish males and females. For a list of available symbols and corresponding shape code, you can type `epicontacts::codeawesome`.

The results should look like:

    ## 
    ## /// Epidemiological Contacts //
    ## 
    ##   // class: epicontacts
    ##   // 50 cases in linelist; 36 contacts;  directed 
    ## 
    ##   // linelist
    ## 
    ## # A tibble: 50 x 4
    ##    id     onset      sex      age
    ##  * <chr>  <date>     <chr>  <dbl>
    ##  1 39e9dc 2017-10-10 female    62
    ##  2 664549 2017-10-16 male      28
    ##  3 b4d8aa 2017-10-17 male      54
    ##  4 51883d 2017-10-18 male      57
    ##  5 947e40 2017-10-20 female    23
    ##  6 9aa197 2017-10-20 female    66
    ##  7 e4b0a2 2017-10-21 female    13
    ##  8 af0ac0 2017-10-21 male      10
    ##  9 185911 2017-10-21 female    34
    ## 10 601d2e 2017-10-22 male      11
    ## # ... with 40 more rows
    ## 
    ##   // contacts
    ## 
    ## # A tibble: 36 x 2
    ##    from   to    
    ##    <chr>  <chr> 
    ##  1 9aa197 426b6d
    ##  2 39e9dc a8e9d8
    ##  3 c2a389 95fc1d
    ##  4 51883d 778316
    ##  5 51883d e37897
    ##  6 933811 99abbe
    ##  7 51883d 185911
    ##  8 b4d8aa e4b0a2
    ##  9 605322 1875e2
    ## 10 b4d8aa b5ad13
    ## # ... with 26 more rows
…
Then, use `epicontacts` to extract data on the generation time (i.e. delay between infections between infectors and infectees):

``` r
ebola_sim_contacts
## 
## /// Epidemiological Contacts //
## 
##   // class: epicontacts
##   // 5,829 cases in linelist; 3,800 contacts;  directed 
## 
##   // linelist
## 
## # A tibble: 5,829 x 11
##    id     generation date_of_infection date_of_onset date_of_hospitalisat…
##  * <chr>       <int> <date>            <date>        <date>               
##  1 d1fafd          0 NA                2014-04-07    2014-04-17           
##  2 53371b          1 2014-04-09        2014-04-15    2014-04-20           
##  3 f5c3d8          1 2014-04-18        2014-04-21    2014-04-25           
##  4 6c286a          2 NA                2014-04-27    2014-04-27           
##  5 0f58c4          2 2014-04-22        2014-04-26    2014-04-29           
##  6 49731d          0 2014-03-19        2014-04-25    2014-05-02           
##  7 f9149b          3 NA                2014-05-03    2014-05-04           
##  8 881bd4          3 2014-04-26        2014-05-01    2014-05-05           
##  9 e66fa4          2 NA                2014-04-21    2014-05-06           
## 10 20b688          3 NA                2014-05-05    2014-05-06           
## # ... with 5,819 more rows, and 6 more variables: date_of_outcome <date>,
## #   outcome <fct>, gender <fct>, hospital <fct>, lon <dbl>, lat <dbl>
## 
##   // contacts
## 
## # A tibble: 3,800 x 3
##    from   to     source 
##  * <chr>  <chr>  <fct>  
##  1 d1fafd 53371b other  
##  2 cac51e f5c3d8 funeral
##  3 f5c3d8 0f58c4 other  
##  4 0f58c4 881bd4 other  
##  5 8508df 40ae5f other  
##  6 127d83 f547d6 funeral
##  7 f5c3d8 d58402 other  
##  8 20b688 d8a13d other  
##  9 2ae019 a3c8b8 other  
## 10 20b688 974bc1 other  
## # ... with 3,790 more rows
…
