…
``` r
dat %>% glimpse()
## Rows: 50
## Columns: 4
## $ case_id <chr> "39e9dc", "664549", "b4d8aa", "51883d", "947e40", "9aa197", "e~
## $ onset   <dttm> 2017-10-10, 2017-10-16, 2017-10-17, 2017-10-18, 2017-10-20, 2~
## $ sex     <chr> "female", "male", "male", "male", "female", "female", "female"~
## $ age     <dbl> 62, 28, 54, 57, 23, 66, 13, 10, 34, 11, 23, 23, 9, 68, 37, 13,~

dat %>% select(onset)
## # A tibble: 50 x 1
##    onset              
##    <dttm>             
##  1 2017-10-10 00:00:00
##  2 2017-10-16 00:00:00
##  3 2017-10-17 00:00:00
##  4 2017-10-18 00:00:00
##  5 2017-10-20 00:00:00
##  6 2017-10-20 00:00:00
##  7 2017-10-21 00:00:00
##  8 2017-10-21 00:00:00
##  9 2017-10-21 00:00:00
## 10 2017-10-22 00:00:00
## # ... with 40 more rows

dat %>% filter(age >14)
## # A tibble: 34 x 4
##    case_id onset               sex      age
##    <chr>   <dttm>              <chr>  <dbl>
##  1 39e9dc  2017-10-10 00:00:00 female    62
##  2 664549  2017-10-16 00:00:00 male      28
##  3 b4d8aa  2017-10-17 00:00:00 male      54
##  4 51883d  2017-10-18 00:00:00 male      57
##  5 947e40  2017-10-20 00:00:00 female    23
##  6 9aa197  2017-10-20 00:00:00 female    66
##  7 185911  2017-10-21 00:00:00 female    34
##  8 605322  2017-10-22 00:00:00 female    23
##  9 e399b1  2017-10-23 00:00:00 female    23
## 10 f658bc  2017-10-28 00:00:00 male      68
## # ... with 24 more rows
…
dat %>% arrange(age)
## # A tibble: 50 x 4
##    case_id onset               sex      age
##    <chr>   <dttm>              <chr>  <dbl>
##  1 ac8d9d  2017-11-23 00:00:00 female     5
##  2 8c5776  2017-11-02 00:00:00 female     7
##  3 426b6d  2017-11-08 00:00:00 female     7
##  4 93a3ba  2017-11-10 00:00:00 male       7
##  5 5eb2b0  2017-11-13 00:00:00 female     7
##  6 1efd54  2017-11-04 00:00:00 male       8
##  7 e37897  2017-10-28 00:00:00 female     9
##  8 59e66c  2017-11-16 00:00:00 male       9
##  9 af0ac0  2017-10-21 00:00:00 male      10
## 10 778316  2017-11-04 00:00:00 female    10
## # ... with 40 more rows
dat %>% summarise(number = n())
## # A tibble: 1 x 1
##   number
##    <int>
## 1     50

dat %>% group_by(sex) %>% summarise(number = n(), mean_age = mean(age))
## # A tibble: 2 x 3
##   sex    number mean_age
##   <chr>   <int>    <dbl>
## 1 female     26     23.7
## 2 male       24     24.5

dat %>% mutate(fecha_inicio_sintomas = onset)
## # A tibble: 50 x 5
##    case_id onset               sex      age fecha_inicio_sintomas
##    <chr>   <dttm>              <chr>  <dbl> <dttm>               
##  1 39e9dc  2017-10-10 00:00:00 female    62 2017-10-10 00:00:00  
##  2 664549  2017-10-16 00:00:00 male      28 2017-10-16 00:00:00  
##  3 b4d8aa  2017-10-17 00:00:00 male      54 2017-10-17 00:00:00  
##  4 51883d  2017-10-18 00:00:00 male      57 2017-10-18 00:00:00  
##  5 947e40  2017-10-20 00:00:00 female    23 2017-10-20 00:00:00  
##  6 9aa197  2017-10-20 00:00:00 female    66 2017-10-20 00:00:00  
##  7 e4b0a2  2017-10-21 00:00:00 female    13 2017-10-21 00:00:00  
##  8 af0ac0  2017-10-21 00:00:00 male      10 2017-10-21 00:00:00  
##  9 185911  2017-10-21 00:00:00 female    34 2017-10-21 00:00:00  
## 10 601d2e  2017-10-22 00:00:00 male      11 2017-10-22 00:00:00  
## # ... with 40 more rows

dat %>% rename(edad = age)
## # A tibble: 50 x 4
##    case_id onset               sex     edad
##    <chr>   <dttm>              <chr>  <dbl>
##  1 39e9dc  2017-10-10 00:00:00 female    62
##  2 664549  2017-10-16 00:00:00 male      28
##  3 b4d8aa  2017-10-17 00:00:00 male      54
##  4 51883d  2017-10-18 00:00:00 male      57
##  5 947e40  2017-10-20 00:00:00 female    23
##  6 9aa197  2017-10-20 00:00:00 female    66
##  7 e4b0a2  2017-10-21 00:00:00 female    13
##  8 af0ac0  2017-10-21 00:00:00 male      10
##  9 185911  2017-10-21 00:00:00 female    34
## 10 601d2e  2017-10-22 00:00:00 male      11
## # ... with 40 more rows
…
