…
Here we decompose the steps to read data in: finding the path to the
data (`path_to_data`), using the function `read_xlsx` to read data in,
and saving the output in a new object `stegen`:

``` r
path_to_data <- here("data", "stegen_raw.xlsx")
stegen <- read_xlsx(path_to_data)
```

To print the content of the dataset, we can use either of these
commands:

``` r
stegen
## # A tibble: 291 x 21
##    `Unique key`   ill `Date-onset`   SEX   Age tiramisu tportion wmousse
##           <dbl> <dbl> <chr>        <dbl> <dbl>    <dbl>    <dbl>   <dbl>
##  1          210     1 1998-06-27       1    18        1        3       0
##  2           12     1 1998-06-27       0    57        1        1       0
##  3          288     1 1998-06-27       1    56        0        0       0
##  4          186     1 1998-06-27       0    17        1        1       1
##  5           20     1 1998-06-27       1    19        1        2       0
##  6          148     1 1998-06-27       0    16        1        2       1
##  7          201     1 1998-06-27       0    19        1        3       0
##  8          106     1 1998-06-27       0    19        1        2       1
##  9          272     1 1998-06-27       1    40        1        2       1
## 10           50     1 1998-06-27       0    53        1        1       1
## # ... with 281 more rows, and 13 more variables: dmousse <dbl>,
## #   mousse <dbl>, mportion <dbl>, Beer <dbl>, redjelly <dbl>, `Fruit
## #   salad` <dbl>, tomato <dbl>, mince <dbl>, salmon <dbl>,
## #   horseradish <dbl>, chickenwin <dbl>, roastbeef <dbl>, PORK <dbl>
## View(stegen)
```
…
In this case, we need to retain columns 6 to 21, excluding `tportion`
and `mportion`, which are not binary; this can be done using the
subsetting operator `[...]`, where `...` are numbers indicating the
columns to retain:

``` r
to_keep <- c(6, 8, 9, 10, 12:21)
to_keep
##  [1]  6  8  9 10 12 13 14 15 16 17 18 19 20 21
food <- stegen[to_keep]
food
## # A tibble: 291 x 14
##    tiramisu wmousse dmousse mousse  beer redjelly fruit_salad tomato mince
##       <dbl>   <dbl>   <dbl>  <dbl> <dbl>    <dbl>       <dbl>  <dbl> <dbl>
##  1        1       0       1      1     0        0           0      0     0
##  2        1       0       1      1     0        0           1      0     1
##  3        0       0       0      0     0        0           0      1     1
##  4        1       1       0      1     0        1           0      0     0
##  5        1       0       0      0     1        0           0      0     0
##  6        1       1       1      1     0        0           1      0     1
##  7        1       0       1      1     0        0           1      0     0
##  8        1       1       1      1     0        1           1      0     0
##  9        1       1       1      1     1        0           0      1     0
## 10        1       1       1      1     0        1           0      0     0
## # ... with 281 more rows, and 5 more variables: salmon <dbl>,
## #   horseradish <dbl>, chickenwin <dbl>, roastbeef <dbl>, pork <dbl>
```
…
