…
``` r
epi_contacts
```

    ## 
    ## /// Epidemiological Contacts //
    ## 
    ##   // class: epicontacts
    ##   // 169 cases in linelist; 60 contacts;  directed 
    ## 
    ##   // linelist
    ## 
    ## # A tibble: 169 x 11
    ##    id    generation date_of_infecti… date_of_onset date_of_hospita…
    ##    <chr>      <dbl> <date>           <date>        <date>          
    ##  1 d1fa…          0 NA               2014-04-07    2014-04-17      
    ##  2 5337…          1 2014-04-09       2014-04-15    2014-04-20      
    ##  3 f5c3…          1 2014-04-18       2014-04-21    2014-04-25      
    ##  4 6c28…          2 NA               2014-04-27    2014-04-27      
    ##  5 0f58…          2 2014-04-22       2014-04-26    2014-04-29      
    ##  6 4973…          0 2014-03-19       2014-04-25    2014-05-02      
    ##  7 f914…          3 NA               2014-05-03    2014-05-04      
    ##  8 881b…          3 2014-04-26       2014-05-01    2014-05-05      
    ##  9 e66f…          2 NA               2014-04-21    2014-05-06      
    ## 10 20b6…          3 NA               2014-05-05    2014-05-06      
    ## # … with 159 more rows, and 6 more variables: date_of_outcome <date>,
    ## #   outcome <chr>, gender <chr>, hospital <chr>, lon <dbl>, lat <dbl>
    ## 
    ##   // contacts
    ## 
    ## # A tibble: 60 x 3
    ##    from   to     source 
    ##    <chr>  <chr>  <chr>  
    ##  1 d1fafd 53371b other  
    ##  2 f5c3d8 0f58c4 other  
    ##  3 0f58c4 881bd4 other  
    ##  4 f5c3d8 d58402 other  
    ##  5 20b688 d8a13d funeral
    ##  6 2ae019 a3c8b8 other  
    ##  7 20b688 974bc1 funeral
    ##  8 2ae019 72b905 funeral
    ##  9 40ae5f b8f2fd funeral
    ## 10 f1f60f 09e386 other  
    ## # … with 50 more rows
…
