…
### Looking into the past: estimating the serial interval from older data

As current data are insufficient to estimate the **serial interval** distribution, some colleague recommends using data from a **past outbreak** stored in the `outbreaks` package, as the dataset `ebola_sim_clean`. Load this dataset, and create a new `epicontacts` object as before, without plotting it (it is a much larger dataset). Store the new object as `old_evd`; the output should look like:

``` r
old_evd
## 
## /// Epidemiological Contacts //
## 
##   // class: epicontacts
##   // 5,829 cases in linelist; 3,800 contacts;  directed 
## 
##   // linelist
## 
## # A tibble: 5,829 x 11
##    id    generation date_of_infecti… date_of_onset date_of_hospita…
##    <chr>      <int> <date>           <date>        <date>          
##  1 d1fa…          0 NA               2014-04-07    2014-04-17      
##  2 5337…          1 2014-04-09       2014-04-15    2014-04-20      
##  3 f5c3…          1 2014-04-18       2014-04-21    2014-04-25      
##  4 6c28…          2 NA               2014-04-27    2014-04-27      
##  5 0f58…          2 2014-04-22       2014-04-26    2014-04-29      
##  6 4973…          0 2014-03-19       2014-04-25    2014-05-02      
##  7 f914…          3 NA               2014-05-03    2014-05-04      
##  8 881b…          3 2014-04-26       2014-05-01    2014-05-05      
##  9 e66f…          2 NA               2014-04-21    2014-05-06      
## 10 20b6…          3 NA               2014-05-05    2014-05-06      
## # … with 5,819 more rows, and 6 more variables: date_of_outcome <date>,
## #   outcome <fct>, gender <fct>, hospital <fct>, lon <dbl>, lat <dbl>
## 
##   // contacts
## 
## # A tibble: 3,800 x 3
##    from   to     source 
##    <chr>  <chr>  <fct>  
##  1 d1fafd 53371b other  
##  2 cac51e f5c3d8 funeral
##  3 f5c3d8 0f58c4 other  
##  4 0f58c4 881bd4 other  
##  5 8508df 40ae5f other  
##  6 127d83 f547d6 funeral
##  7 f5c3d8 d58402 other  
##  8 20b688 d8a13d other  
##  9 2ae019 a3c8b8 other  
## 10 20b688 974bc1 other  
## # … with 3,790 more rows
```
…
