Importing data into
…
.pull-right[
<img src="01_excel_icon.png" width="50%" style="display: block; margin: auto;" />
]

---

## What data look like in Excel vs. <svg style="height:0.8em;top:.04em;position:relative;fill:steelblue;" viewBox="0 0 581 512"><path d="M581 226.6C581 119.1 450.9 32 290.5 32S0 119.1 0 226.6C0 322.4 103.3 402 239.4 418.1V480h99.1v-61.5c24.3-2.7 47.6-7.4 69.4-13.9L448 480h112l-67.4-113.7c54.5-35.4 88.4-84.9 88.4-139.7zm-466.8 14.5c0-73.5 98.9-133 220.8-133s211.9 40.7 211.9 133c0 50.1-26.5 85-70.3 106.4-2.4-1.6-4.7-2.9-6.4-3.7-10.2-5.2-27.8-10.5-27.8-10.5s86.6-6.4 86.6-92.7-90.6-87.9-90.6-87.9h-199V361c-74.1-21.5-125.2-67.1-125.2-119.9zm225.1 38.3v-55.6c57.8 0 87.8-6.8 87.8 27.3 0 36.5-38.2 28.3-87.8 28.3zm-.9 72.5H365c10.8 0 18.9 11.7 24 19.2-16.1 1.9-33 2.8-50.6 2.9v-22.1z"/></svg>

<img src="01_readr_office_supplies.png" width="70%" style="display: block; margin: auto;" />

```r
read_excel('office_supplies.xlsx')
## # A tibble: 43 x 6
##   OrderDate           Region  Rep     Item    Units `Unit Price`
##   <dttm>              <chr>   <chr>   <chr>   <dbl>        <dbl>
## 1 2014-07-04 00:00:00 East    Richard Pen Set    62         4.99
## 2 2014-07-12 00:00:00 East    Nick    Binder     29         1.99
## 3 2014-07-21 00:00:00 Central Morgan  Pen Set    55        12.5 
## 4 2014-07-29 00:00:00 East    Susan   Binder     81        20.0 
## 5 2014-08-07 00:00:00 Central Matthew Pen Set    42        24.0 
## # ... with 38 more rows
```
…
```r
excel_sheets(path = 'sales_data.xlsx')
## [1] "Orders"     "Users"      "Returns"    "Sheet1"     "Sheet5"    
## [6] "Sheet3 (2)"
```

--

- Import data with `read_excel()` (default sheet to read is 1st)

--

```r
read_excel(path = 'sales_data.xlsx')
## # A tibble: 1,952 x 7
##   `Order Priority` `Unit Price` `Customer ID` `Ship Mode` `Customer Segme…
##   <chr>                   <dbl>         <dbl> <chr>       <chr>           
## 1 High                     2.84             3 Express Air Corporate       
## 2 Not Specified          501.               5 Delivery T… Home Office     
## 3 Critical                 9.48            11 Regular Air Home Office     
## 4 Medium                  78.7             14 Regular Air Small Business  
## 5 Medium                   3.28            14 Regular Air Small Business  
## # ... with 1,947 more rows, and 2 more variables: `Product
## #   Category` <chr>, `Order Date` <dttm>
```
…
--

.pull-left[

```r
read_excel(
  path = 'sales_data.xlsx',
  sheet = 'Returns'
)
## # A tibble: 1,634 x 2
##   `Order ID` Status  
##        <dbl> <chr>   
## 1         65 Returned
## 2        612 Returned
## 3        614 Returned
## 4        678 Returned
## 5        710 Returned
## # ... with 1,629 more rows
```
…
]

--

.pull-right[

- Specify range to import when working with untidy datasets

```r
read_excel(
  'deaths.xlsx', 
  sheet = 1, range = "A5:F15"
)
## # A tibble: 10 x 6
##   Name Profession   Age `Has kids` `Date of birth`     `Date of death`    
##   <ch> <chr>      <dbl> <lgl>      <dttm>              <dttm>             
## 1 Dav… musician      69 TRUE       1947-01-08 00:00:00 2016-01-10 00:00:00
## 2 Car… actor         60 TRUE       1956-10-21 00:00:00 2016-12-27 00:00:00
## 3 Chu… musician      90 TRUE       1926-10-18 00:00:00 2017-03-18 00:00:00
## 4 Bil… actor         61 TRUE       1955-05-17 00:00:00 2017-02-25 00:00:00
## 5 Pri… musician      57 TRUE       1958-06-07 00:00:00 2016-04-21 00:00:00
## # ... with 5 more rows
```
…
